\relax 
\@writefile{toc}{\contentsline {chapter}{\numberline {1}Introduction}{1}}
\@writefile{lof}{\addvspace {10\p@ }}
\@writefile{lot}{\addvspace {10\p@ }}
\@writefile{toc}{\contentsline {chapter}{\numberline {2}Design And Implementation}{2}}
\@writefile{lof}{\addvspace {10\p@ }}
\@writefile{lot}{\addvspace {10\p@ }}
\@writefile{lof}{\contentsline {figure}{\numberline {2.1}{\ignorespaces Threads In Server\relax }}{3}}
\providecommand*\caption@xref[2]{\@setref\relax\@undefined{#1}}
\newlabel{fig:Threads In Server}{{2.1}{3}}
\@writefile{lof}{\contentsline {figure}{\numberline {2.2}{\ignorespaces Connection Node\relax }}{8}}
\newlabel{fig:Connection Node}{{2.2}{8}}
\@writefile{lof}{\contentsline {figure}{\numberline {2.3}{\ignorespaces Position Node\relax }}{8}}
\newlabel{fig:Position Node}{{2.3}{8}}
\@writefile{lof}{\contentsline {figure}{\numberline {2.4}{\ignorespaces Points Node\relax }}{9}}
\newlabel{fig:Points Node}{{2.4}{9}}
\@writefile{lof}{\contentsline {figure}{\numberline {2.5}{\ignorespaces Direction Node\relax }}{9}}
\newlabel{fig:Direction Node}{{2.5}{9}}
\@writefile{lof}{\contentsline {figure}{\numberline {2.6}{\ignorespaces Threads In Client\relax }}{11}}
\newlabel{fig:Threads In Client}{{2.6}{11}}
\@writefile{lof}{\contentsline {figure}{\numberline {2.7}{\ignorespaces Threads In Client\relax }}{11}}
\newlabel{fig:Threads In Client}{{2.7}{11}}
\@writefile{toc}{\contentsline {chapter}{\numberline {3}Network And Transmission}{14}}
\@writefile{lof}{\addvspace {10\p@ }}
\@writefile{lot}{\addvspace {10\p@ }}
\@writefile{lot}{\contentsline {table}{\numberline {3.1}{\ignorespaces Network Protocol Flags\relax }}{15}}
\newlabel{table:Network Protocol Flags}{{3.1}{15}}
\@writefile{toc}{\contentsline {chapter}{\numberline {4}Testing}{16}}
\@writefile{lof}{\addvspace {10\p@ }}
\@writefile{lot}{\addvspace {10\p@ }}
\@writefile{lof}{\contentsline {figure}{\numberline {4.1}{\ignorespaces Client On Empty Server\relax }}{16}}
\newlabel{fig:Client On Empty Server}{{4.1}{16}}
\@writefile{lof}{\contentsline {figure}{\numberline {4.2}{\ignorespaces Client On Non-Empty Server\relax }}{17}}
\newlabel{fig:Client On Non-Empty Server}{{4.2}{17}}
\@writefile{lof}{\contentsline {figure}{\numberline {4.3}{\ignorespaces Client Loses\relax }}{18}}
\newlabel{fig:Client Loses}{{4.3}{18}}
\@writefile{lof}{\contentsline {figure}{\numberline {4.4}{\ignorespaces Server Down\relax }}{19}}
\newlabel{fig:Server Down}{{4.4}{19}}
\@writefile{lof}{\contentsline {figure}{\numberline {4.5}{\ignorespaces Cannot Allocate Space For New Snake\relax }}{20}}
\newlabel{fig:Cannot Allocate Space For New Snake}{{4.5}{20}}
\@writefile{lof}{\contentsline {figure}{\numberline {4.6}{\ignorespaces Before Eating Fruit\relax }}{21}}
\newlabel{fig:Before Eating Fruit}{{4.6}{21}}
\@writefile{lof}{\contentsline {figure}{\numberline {4.7}{\ignorespaces After Eating Fruit\relax }}{21}}
\newlabel{fig:After Eating Fruit}{{4.7}{21}}
\@writefile{toc}{\contentsline {chapter}{\numberline {5}Bugs And Evaluation}{22}}
\@writefile{lof}{\addvspace {10\p@ }}
\@writefile{lot}{\addvspace {10\p@ }}
